f9e51990-8d88-4ab5-9978-b201b2486f13,Hz Beautystep N Healthreat Solution|Jalan Angkasa 
66f07be2-de9d-44a9-81ea-b62663819c45,101 HAIR CONSULTANTS (S) PTE LTD
0dd0262d-b339-43f8-be73-9e2484c87a05,GP Natrahea - Parkway Parade
84bde072-5a87-4620-b0e2-27e35d9d2cf2,CARING SKIN (ONLINE)
6b3cef31-fd5d-4429-b206-2d26003c9598,Hairport Studio | Taman Molek
d348a291-bf56-4dec-b220-1ac4067aa850,IRYASA (ONLINE)
0072ef7a-bfbb-4124-bbbc-5a3724ad48dd,Mine Nail Artisan|26 Jalan Perwira 17
5cd4c0b0-cb75-459c-8c78-0723c32b264c,Wish Beauty Hair Saloon | Bagan Serai
6de32292-7345-4bfc-929c-5a6c0dda5af3,ED Eight Days Salon | IPC Shopping Centre
3c96546a-8145-4ef3-a871-7614b3edf0b7,GP Natrahea - Northpoint City
15e8b7c2-4c7e-418b-81ab-1eda58a25778,Nailsbylittleboo | Sunway Geo Flexi Suites
65ecff02-dce0-4efe-95f7-ea2dfb6df2b0,GP Poli Medical - Yi Xiu Factory Building
cf78a1bb-15b3-41e7-8ff0-8717bed60c3d,MICORA PTE. LTD. (ONLINE)
7679bd91-e5f6-4022-8d4b-603a7e9634b3,Venus Beauty Avenue | Taman Kota Laksamana
e73e0e9b-d2e1-4cf5-bd52-bbc6488aee2e,Hit Barber | Medan Mara
1ca56d77-6711-4e97-b044-47a9b7205765,TWENTY TWO BEAUTY HAIR SALON|JALAN ANGGUN CITY
55fc2c01-80dc-4974-91ee-4e5c7fe44ddd,EX HAIR EXCHANGE | SUNGAI WANG PLAZA
d36736a7-9814-4c5d-843d-8284256495c8,Comet Hair Studio | Taman Gaya
3eacd6c0-77b0-4eef-9282-96aaa1217f9b,KK Crew Cuts
0f66d11a-04ba-43ed-bfcb-9b1f8023ca21,Formula One | Bintang Megamall
9f30db10-c7f7-40d7-9f93-47c9e8689aef,SYLVIA'S SECRETS PTE. LTD.
9674d766-6965-42d6-8633-5e2e0c856402,Ej Beauty Salon | Taman Bukit Indah
b755850d-6baf-4152-936a-353df9b3caa8,WELLKIN HAIR SCALP CLINIQUE
27e346e5-db16-4e0d-9292-9ad467700a2c,GP Kinohimitsu - Northpoint City
b0412176-1fcc-44cb-884c-3407591b214a,JPRO BEAUTY HOUSE PTE. LTD.
6c670df2-d7da-4ce7-898d-bfb5cf063079,ED Eight Days Salon | Paradigm Mall
0a5f394f-c5a4-4a34-9fbf-b5b6d97590ea,El Professional Hair Studio Sdn. Bhd.|Tun Aminah
46e6469d-08ed-484f-918d-643bb554dfa4,IDENTITY HAIR CONCEPT | LALUAN TASEK TIMUR 1
977eda8b-04a1-4e82-a7ed-e25cc5832b5f,MyTradisi | TMT
f993fdce-ad4b-4385-bbe0-18877a823fc6,Neutra Reflexology & Spa | Bangsar
7d1547f3-7fcb-4e74-92f9-127e8a0773dd,Gowri Cash N Carry And Tailoring|Taman Bkt Melaka
d1c26f2c-a4af-4a79-833c-f7a553444a8c,Gt Hair Saloon | Jln Metro Perdana Barat 2
cef7de84-e0b3-4172-a5c1-5734311a18be,Bliss Salon | Village Square
dea46dd9-97d9-4697-baa6-e2576ce47e4e,QX BEAUTY WELLNESS PTE. LTD. (BISHAN)
809da35d-4474-4fae-bbfd-8c00f2807247,Pure Hair & Beauty Exchange | Taman Tebrau Jaya
c062d315-6bc8-4313-993f-5dfdaed5bee8,Changes Hair Beauty Saloon | Goodyear Court
9bc5985d-22d4-4c42-84f8-f6365f5097a2,Glitz Nail Spa | Empire Shopping Gallery
3e54b2a2-d77a-402a-b4af-285f28c25e6b,Esper Hair Studio | Taman Molek
f3cc2c0f-3fea-4b75-8817-a56a3afb886d,Good Barbershop| Pasaraya Econsave
7a6c3eff-9dc2-42b5-a779-fe7177851a8f,PORCELAIN PTE. LTD. (ONLINE)
7a237792-4226-4d45-b251-be32176a65c0,Rick's Hair Factory | Kota Samarahan
3cc2522f-42e1-4447-b3d7-411a05e3e07b,ORIGIN | JALAN ISTANA
d811e688-0097-4300-b07b-1e298212bd2a,GP Petal Fresh - Ubi Techpark
3f47913a-2a7e-44c6-9658-1fb312e77fdd,One Step Beauty | Jalan Dato Undang Johol
7577868a-f790-495a-8fdb-09c579a6cc9d,TK TRICHOKARE (NEX MALL)
efed1e47-00e2-40a9-919e-c8dfaa06fe17,Hair Space Salon | Kuching
abc58873-4573-4d9a-a220-25f222d30c1c,CARING SKIN (HEARTLAND MALL)
289b7a34-e5e6-4386-bb0d-0a0b07f2a443,TK TRICHOKARE (CLEMENTI MALL)
ab40b170-d2ad-47c5-9ffc-b57ce284865d,ARVO FACE AND SOUL CARE 
a6411e05-78da-4806-9e4a-bf1d428981b0,Nailicious | Summit City Complex
bc4c4e68-9d72-4142-965e-816072a6e9e9,101 (BEDOK MALL)
75c21aab-8997-4a7a-b006-d65f8d823d99,Ricco Nails | Shah Alam
480eedb3-6d5b-459f-b65f-73efef2cdad5,Celmonze | Sungai Buloh
98ba3a86-3250-43b4-9b1c-d90b7279104d,Mia Hair Beauty Studio | Taman D' Alpinia
c74b1e44-1e73-4cf5-bd6c-0b049de29806,Ava Skin Laser | P.Pinang
fc2b3421-854d-4455-9815-cbafa629f365,joys beauty care | desa pandan
1d6a5c22-d415-47f6-bea2-51042bf7b12c,RE:ERTH (ONLINE)
243abe0c-a4ce-4bdc-8e46-14a08b56d912,Life Instyle Hair Studio | Klang
3d0cbc1e-d44c-4c6d-93c6-af32e3bb43a2,79 Hair Specialist | Laman Rimbunan
0a0921aa-a0ac-411e-8081-f04d24233976,Oggi Hair Saloon | Taman Putrimas
a3f15070-221d-4b55-9249-438a25765899,Glitz Nail Supply | Empire Soho
9f770a49-768a-4f23-a730-da1befb1a098,Yumiko Hair Shop|G37 Jalan Mawar 3
7204780d-0824-4a21-b33e-956b762b8773,GP Natrahea - Novena Medical Center
41010abb-60c4-4dfa-a9cd-0b0cd46e7041,Milan Hair Studio | Bandar Puchong Jaya
37bd2017-8eb2-4983-a444-bc512df884f9,THE MIN LIST LLP (ONLINE)
f9666721-7fc8-426d-8d28-dcb812095b68,SIMPLY ACTIVE (ONLINE)
82795bf8-6789-4daa-8ca0-1c045682f949,ZYU (ONLINE)
f761385f-89af-4a35-93ff-34442ee9ee21,Alva Beauty Care Enterprise|Port Dickson
c8711cef-134f-4b9a-95b7-424b1a828a18,Twiggy Hair Salon |  Jalan Macalister
25cb6394-236d-42ab-8220-1e636f50f93a,MAGICION BEAUTY
3343de43-4b30-46d5-a0c2-913604dc4c02,The Byuti Sdn Bhd
b0be650b-f9c3-49bf-828e-fb6dccfca1c8,GP Singapore Memories - The Makena
937c883f-e225-4693-a4ff-27705a4ef693,JL Beauty Care | Taman Johor Jaya
28b9dfdc-dd22-4c7c-bfcf-c68cb83dee85,VN Garden Beauty | Taman Mount Austin
a47ed512-77a0-4ffe-94e0-5aad605d0fb8,Buluu Wax Spa
ba849d53-32ab-4a21-b6db-9ad48214a746,My Bowen Therapy TTDI
edf40a26-bd60-40cb-8c02-2ea7230e9a59,Kt Hair Salon|Jalan 4 Komersial Semawang 
1936d15e-e417-418c-9c2c-fc9ec4911f95,Silky Hair Saloon | Jln Tun Abang Haji Openg
f36f5f52-beb5-4e68-adce-6e5cfce4eac9,Tip Top Barbershop | Taman Dataran Larkin
a1e00ee0-3f87-4074-99f6-76d36bf2ec96,Zhi Ren Culture Hair Salon | Taman Daya
7fdb8303-f80f-4389-8bdd-1b44c8c24673,Padzil Shukor Enterprise|Gerai Perhentian Bas Gema
76122244-daf8-479b-b31c-e0323a32aec4,Hair Solution 2 | Taman Universiti
1be1ab99-760b-433a-b51c-7a409401345b,ED Eight Days Salon | Gamuda Walk
dae67656-9298-42bd-a18f-7245bf623a05,Tokyoninki HQ
d0e59f96-c459-447c-908d-d4188fd9d05a,BEAUTYFRESH (ONLINE)
93c9ddb2-1505-41bd-8076-b446e38acf0c,Cosmetics Jb | Adda Heights
40e2f464-c404-4b5f-9451-9cf45b526aac,Thousand Ten Hair . Nail Salon| Hill Shopping Mall
cd086209-07ea-4d0d-927e-2803ca8e7b6d,FACIA GINZA SINGAPORE (ORCHARD)
e8e81439-b627-4450-bc90-470516856ffc,Ak Hair Studio|Taman Mutiara Mas
1fcb0c8b-edb0-4a75-b9cf-1995f2e8a334,M Phoenix Unisex Saloon | Taman Seremban Jaya
c242eefd-dc00-4440-bc2b-62a28b9f3994,GP Kinohimitsu - Suntec City Mall
4c867a46-b99a-4bed-92b4-3e2570897a67,SUKYAN BEAUTY | JALAN SUARASA 8/4
4a46f747-60b4-4ba6-8f9e-f938fd34d176,GP Natrahea - Jurong East CPF Building
9062f8a2-50fa-4e72-9991-e0a78348fa79,COVVO HAIR SALON | JOHOR BAHRU
d7d49b04-1e85-435c-b5ef-8bb17b8f3861,Jn Beauty Wellness|Jln Ksb 14
f323e383-a7df-46f5-94eb-204b4375f51e,M1 Hair & Beauty Centre | Jalan Sri Putri
6bb773be-137a-4f53-be29-e677da4efc39,La Sense Hair Studio | Setia Indah
16ecde54-02ec-4da4-8fc8-c81cd811042f,NAIL ARTZ STUDIO | JALAN MELAKA RAYA 4
23ace343-15ab-416e-98c3-ea2b3b5aa79c,Salon Amy Barbershop | Bandar Baru Uda
7e34d693-2912-447a-a215-cb3698047639,Earpro | Taman Molek
a3e3a181-b8e6-4a26-ab64-796871fbcfb9,MT.SAPOLA (TAKASHIMAYA)
e9814589-e0a3-403c-bfc7-024bebd28fba,Supremacy Station | Jalan Kpks 7
d95871fb-2d3a-46d1-a1b5-8a518cab4c17,Estetika Medispa TTDI
be9efb8e-d7b8-4c3f-90d0-7a36e55fd14b,Dermal Line Face Body Wellness | Jalan Dedap
c5fc49fa-d694-47cb-8ddc-af585025cf34,B20 Clothing Alteration | PA Batu Lanchang 
a259e239-006d-4f56-935e-9fbf81445649,GP Haach - 100 AM
40010a60-cc81-42cc-bb49-0c02b268d114,JUNSEI SKIN LAB
2a6f7b6d-dd80-4c55-bf38-4417d1582600,HASUTOMI (SINGAPORE) PTE. LTD. (ONLINE)
d8e323e9-eba0-4b2b-bf79-47f39fbfc474,A & B FASHION HOUSE
23231ed7-9d61-4104-8115-7de10baf25cc,Kedai Ubat Yong Thye Long | Taman Perling
b6e46bf9-cf78-4432-a163-9308354fbbf0,J.H Hair Studio | Jalan Sutera Tanjung
1eed0e7a-c643-4d37-a05c-fd496eff1dc6,INHALEMYFAIRYDUST
e835faef-d28e-4945-81c8-6790a176b50d,Tapaq Qarya Ventures | Taman Putra Prima
ba4613e9-289a-4c42-bbd4-86a59a973f12,Prestige Medispa | Ampang
3a65deb6-6435-4452-b267-3b30ee885638,Oh My Beauty 
c72fb98e-fc9d-4c11-971b-9fd45a8a3413,Formula One | Parkcity Shopping Mall
4b007c2e-94dc-480b-8afc-f5868b172d95,GP HealthyOne - Jurong East Street 24
65dfe65f-8062-477a-9919-b0972dd017a1,MyTradisi | MVS
49527cc8-b9b7-49d7-ab77-ddad1dce871f,GP BioFinest - Sims Drive
b9b6681c-bc00-4f7f-8efb-86ea34a1fc97,SS Hair Saloon | Taman Putri Wangsa
6f87a3ab-7af4-4d5a-b92c-91c12887960d,CHARM BEAUTY HOUSE
f81c1c23-05c8-4f21-837f-1234e82788b7,101 (CENTURY SQUARE)
20049a74-f96e-4a87-b386-bc39c8b60fda,Mei Yi Mei Saloon & Jewellery|Gemencheh
ae4962bf-ae63-465b-9634-ce6f6addc287,Hair Room | Bandar Bukit Raja
93d4fe0e-3894-4f02-b272-264ba6642465,Wei E Hair Salon | Taman Ehsan Jaya
d920d13b-d4fd-454a-8366-a3da536575ce,Faye Nails Story Spa|Jalan Kuchai Lama
11d7b930-4424-4b00-b2fa-30001a6c0149,MyThai | CTT
bea48f86-0a75-4334-8ed9-931cbff20891,Hairmo |  Jalan Lang Emas
fd80899b-bcb2-4a8d-8a74-10ef1d98dc86,Skin Culture Century|taman cheras
1349d200-21a1-4c62-8926-26633d8a5f89,Z - One | Bandar Puteri Puchong 
1f471d6b-f76b-4ef7-b711-a2bb4eea0fd9,May Hair Salon & Beauty Centre| Jalan Gambir 4
7e3c4cbb-5eae-436f-8c04-58ab6a8073da,Elsewhere Hair Studio | Taman Johor Jaya
1fbf2204-0776-4910-8fda-6828e9051753,GP Refresh Wellness - Ubi Ave 1
a7ce3b39-13b0-413e-803b-28483e01f762,Restyle By A-Cut Above | Tropicana Garden Mall
b381806e-74c8-4f8a-b590-21772a1956be,LE PETIT SARA LLP
831996aa-d8ae-449e-b06a-81ea59c72752,BTEGA PTE. LTD. (ONLINE)
d904d0af-d0ee-47e6-973c-17619488d46a,GP Oneness Enzymes - Defu Industrial Estate
17714797-ee27-47a8-8a04-4a70592c89f5,Germaine Hair & Beauty Saloon|Jalan Sungai Abong
2f23d0d4-3b94-4937-9f90-b6d262b8a8f5,GP Natrahea - Tiong Bahru Plaza
41cd6a79-887b-44db-900f-8c982fd8c10e,Venus Beauty House|PJ
24c30279-df0c-4b0f-9104-665a3ebbe179,PAPILLA HAIR
f1859618-aa09-40c1-ae59-4d01059ac564,Kam Fashion | Jalan Putra 1
01b6c7d2-0c98-4eab-9fa2-487a6d6a192c,26 Beaute Saloon | Bandar Sungai Long
6dc77551-e840-433f-beb5-199df4078e2b,QB HOUSE (AMK HUB)
b83fae12-7da4-4a28-a925-ce7978a7db8b,Cassa Bella Beauty Salon|Taman Kulai Utama
eab62d0e-4270-4eb2-8c62-70f36090d328,WYN'S NAIL
51cc2e9e-6d52-4952-8f03-fa85a5746db4,Maxton Hair Saloon | Jalan Prima Saujana
8d3f8f04-9f67-4a74-bcbd-d0eb1f6dde0b,SHUGAR SPA
72c373a8-b968-4b39-9b3a-f4e97a9ac6c4,Ryana Kosmetik | Jalan Bunga Raya
6dc87d58-f549-4789-8370-fc99c4dcb9bc,U Cut Hair Salon | Taman Daya
c7cea91c-f5c6-4433-85f5-362623915f39,T2ethereal Sdn. Bhd.
feca3a83-a202-4582-8c51-a21c345e9ac3,GP Dr Haach - Orchard Central
919282d6-b8d8-4fe2-a344-5e00852b6e03,Adrick House Haircut | Tabuan Jaya
fbf36620-e207-4d68-aebe-a7344b2a97b1,ESTETICA BEAUTY (BUKIT PANJANG PLAZA)
f76ca537-831f-4415-ae59-2a09f390f29f,ILLUMIA THERAPEUTICS
90034ac9-f7d6-4fed-a313-693367e4d7ef,Zing Beauty | Block A Tingkat Bawah pangsapuri
8cad7125-05de-4ffd-92b9-fca77968093d,SUPER TRIM
e314010b-ccb1-42a4-b670-bc319ee54d25,Lavandre The Nail House | Cheras
38fa7a40-8b1f-4604-bf78-d2b411754187,WANT SKINCARE PTE. LTD. (ONLINE)
674c5a4b-c2e6-4e8a-bfb5-07b0143a8882,GP I'nāt - Yung An Road
7c2bfd27-6c75-4fba-8cc1-a9479ac7c9a8,TOPP CARE
2e4807cc-6c01-444d-9c13-61b4f7f34df8,Finity Hair Salon | Jalan Beladau 
0e070355-7754-45ac-9afa-52a57170d692,Neutra Wellness | Solaris MK
50728a96-5437-4553-b3e6-529c0973b293,FRANCES BEAUTY CLINIC
df69dbc1-c957-4d56-9cf1-5caa278306a2,101 (NORTHPOINT)
077730a5-b4b0-484f-a64e-0a6dc1ea40a0,Margon Legacy Barber Shop | Taman Jitra Jaya
115d3d68-c3c6-4da2-8758-cfb8ca831a5f,Cosmo Aesthetic & Wellness | Mid Valley
a1cab55a-98ac-4cd2-a5fd-f8f1f00d6425,ESTETICA BEAUTY (CENTURY SQUARE)
2cf29307-a2cb-4a8f-aa44-0161b733c4c0,Happy Fit Family | Jalan Sagu
a1825e95-6a89-426d-91c0-98f1098fffd3,ED Eight Days Salon | Central i-City
29cef9ab-d8bc-4e85-b629-c240a79c2de3,Formula One Bespoke Tailor | Kuching
ef7129f7-3425-48d5-89ee-6934657e0cb1,GP Natrahea - Tampines Plaza
78712ce4-23e2-47f9-a505-ac864efaaaa4,De Waves Hair Salon | SS2/66
b246f023-4ae8-4f02-83ca-21a59ac52a60,LOVE SKIN (ONLINE)
48a1a760-005e-4789-99e4-4037eff79726,Spring Unisex Hair Saloon | KL
387db58a-5416-47fa-a9f9-c92b86d9c5fd,TK TRICHOKARE (NOVENA SQUARE)
3add6490-0da5-48e1-95c8-4a72df02b651,Zazen Health Solutions Sdn Bhd
cbac6e32-ff51-4800-b7ee-1c331bec3b23,Fixedstar Hair Salon | Taman Mega Ria
5097eca3-b124-4b75-8a35-c4375abfff3f,Jm Healthcare | Jln Harmonium
34a27332-bb63-4cde-a224-7677bb4f320c,7 PM Hair Lounge | Eco Santuari
796d1a74-2318-4a26-9aac-5949c418e4a8,GP Vitadeals.Sg - Loyang Way
2d1eb0bb-a0ad-406b-84bc-06d3e4c209d1,FACIA GINZA SINGAPORE (CLARKE QUAY)
6e292078-0095-4d4c-9932-b937ad298ea2,JON TAILOR | JALAN LAXAMANA
c160b300-919a-49b7-9677-8470066f9a97,Hair Cut Hair Style | Perkg Cenderawasih
9f022de3-2157-4036-9a11-166c0d2336c2,GP DeckOut - Bukit Batok Street 23
10349f33-f9ac-4168-8b1a-36be3af93599,MyThai | TMT
d2215c3b-5486-45fd-89a8-3108c1e5fed9,Ray Tailoring Services | Plaza Sungai Wang
5c2c715e-c6c8-4aa9-9c3e-c8d26ed6ee65,A+B Hair Studio | Jalan Kapar
b56097da-57de-46b4-ae4b-494e221cae09,ED Eight Days Salon | Kota Kemuning
4b35837f-e892-4872-8d73-712407555f32,GP Dr Haach - Raffles City
af6cec3a-1630-4e91-adaf-e533e01fdceb,Fancy Centre | Kuching
41370a53-7a40-45b2-b96d-347c17d1e775,THE COLOR SHOP | JALAN SUNGAI UJONG
ecf8a896-2379-4994-ab10-96f72d89dbd2,Kedai Gunting Rambut Love Hair|G-29 Jalan Mawar 3
024ba956-0a7f-4cc9-9d4e-2e55c4d61d54,SKIN HEALTH CENTRE
c53ace65-8888-4f38-9367-91b515d21149,19th stitch | Bukit Jalil
3e05468c-c45e-4d01-905b-31b78f4eaeb3,Mystic Bridal & Makeup Academy | Jalan Pendekar 18
ba5bdb44-1fe1-4d8f-9dc2-bb1b3cba016c,GP HDT Healthcare - Jalan Lam Huat - Delivered by 
16511790-d2a3-44b9-a465-99b1abd6a835,Cml Hair Salon | Taman Nusa Perintis
01f92963-0cdd-4cbc-9a94-f46075afc67f,Realize Beauty | Bukit Mertajam
8e8862de-9022-4d9a-80b6-9c1bdfc567e5,ZUCCA BOUTIQUE SALOON | TAMAN FLORA UTAMA
3a96bccd-56d9-41f0-bfa1-21bbf3b50d15,TASHKILA (ONLINE)
fd01b91f-7fe2-4d8e-b44f-d13546a8821d,MERAKI SALON 
9be3d1a7-e5ee-4b29-8397-345f53bea6c0,Whoops Hair Studio | Cheras
65ae660c-1f61-4f14-ab42-6bab9583423d,Despring Beauty & Body Care Salon|pj
6927562c-7bdf-4f5d-a7a1-adb427e58b55,Beauty Angel Skin Care & Slimming Centre | Taman U
94b17b56-fcb1-4d2d-a6a0-1764d24979cd,HAIRDREAMS COUTURE SALON SINGAPORE
38035c0e-c330-41cc-8e13-7b07854e5967,APT | AEON Bukit Indah
582ffe8a-3735-4f2f-b230-ee5decebadb4,Picutso Salon | Jalan Lang Emas
a70ff832-653c-438a-98e0-43d47dd211d2,PAULA'S CHOICE (ONLINE)
8e27f168-ab52-459f-980f-6de4a70af1ca,NAIL TALK Q BEAUTY | JALAN BAKRI
479865d3-198f-484b-a65b-e24e77633747,ADV Aesthetic Centre | Taman Mount Austin
57a58806-f55d-4d92-909e-a3bd6ccef912,Yaw Hair Saloon |  Taman mount Austin
39db0e5b-32a6-442c-bd5d-60899871b8b2,Aroma Meridian Beauty And Wellness|Kota Damansara
b609c918-9522-47a2-a359-33106ca57379,Skin Culture Century Xuanyu Makeup | Jalan Cengkeh
d7c5cea4-1e84-49a5-abac-aad871577d85,THE ORCHID SKIN (ONLINE)
6e6a01ab-2105-4925-808d-c61ba593594a,Grace Tailor House | Sebuyau
da077f2d-1d6e-470f-924d-0049e558cb42,BALANCEZ U THE BODY WORKSHOP (WOODLANDS)
04c3e524-55fd-4cde-b732-e88b716b74f4,BENG KANG (ONLINE)
77b11999-a719-4687-b95f-75fba28a9ea0,Classic Hair Studio|Taman Tampoi Indah 2
89021cef-67e6-4535-8fed-79470a94c327,Kang Zu|Lot Ex 11 Bestari Bestmart
14ca2473-13ae-44d3-ac67-658054636ba0,Ching Beauty & Body Slimming House | Taman Mutiara
821e2df7-9ea6-45a2-bbbd-569639ec0db2,GOPLAY COSMETICS PTE. LTD. (ONLINE)
8b96448b-e9b9-41d7-9669-bd47b5de0d81,ZETRO SALONS | MELAWATI MALL
fb575b80-d2e6-422c-bb7c-54e067b58838,GP Sukin - Ubi Techpark
54231759-0e34-4156-bcda-79850e9da3e8,ESTETICA BEAUTY (NORTHPOINT CITY)
dac1ad5e-4ba9-450b-a64a-7b596c4ad0a6,Merrylife International Sdn Bhd
60dd78dc-d8e8-4662-ac06-a45cd5b1e3b7,MyThai | TST
ec1fe0c0-188e-4349-af29-77982d4e7d68,GP Vines And Roots - Lucky Crescent
a3bea0e3-4f86-40cd-a745-89886b14067a,ZIG SALON
f58d8109-5ee2-464d-b351-fe21a3075c46,Magic Eight Salon | Bandar Baru Kangkar Pulai
13fa68dc-2509-4fe5-be90-320be1000a80,Ha - B Hair Studio | Klang
f2d84816-f710-4b49-be9f-831df125e09b,J & J Unisex Hair & Beauty Saloon | Batu 9
87e60b42-5e48-470c-a3c6-ffbcc971a204,Nine To Nine Hair Studio | KL
0e3a1405-979a-4756-8b15-bff9abd08e7f,Happy Foot Reflexology Centre | Jalan Dato Sulaima
aca4ac1f-e1d4-4fb1-b354-1a244fc569d5,Mysuri Herba & Kosmetik | Dataran Permaisuri
db9533e8-7eca-49a1-b73d-f5627cf1ce37,GP Haach - Raffles City
fd4735a6-934a-4fb5-a075-c9637f3bd6e7,APT | Puchong The Cube
216306f2-b3cc-415b-83e1-f93a8346d10c,CJ Hair Studio | Kluang
e53de22d-a61e-4bb0-a012-bda36d00ae02,FOLLICLE |BANDAR SUNWAY
70c4492f-450f-4b23-894c-d916581ea87e,Mase Marketing Sdn. Bhd. | Jalan Kempas
b9ae35a9-7566-4556-90a2-4e40583c8e20,JANICE BEAUTY SALON
bbb7e640-bc20-4a6e-87d6-6bd39936676d,MT.SAPOLA (TAMPINES)
d659b193-f759-48ef-8d69-55c756bceba5,Colour Zone Beauty Studio | Jalan Anggerik Emas 1
7a8ac707-32b2-406a-9289-bba0ece087a8,ESTETICA BEAUTY (PLAZA SINGAPURA)
b292b6fe-c55a-4fc4-92f8-7bb041f939ee,GP Natrahea - Heartland Mall
33ffa3dd-8eec-4fad-9f8b-7b74504f5078,Pusat Keriting Rambut Yen Siang|Taman Sri Kota
de611e65-94cd-4390-959c-11366c1965d9,Paint Hair Studio|Skudai
3cd43794-9b61-4173-914d-68996a7cf8fb,Nature Tech Global Sdn Bhd | Damansara Damai
081be1c2-fb96-45a8-ae98-a28af5c7def1,Jay Hair And Beauty Saloon | Taman Muda
744f1425-e1e3-4886-affa-8a3faa8774f8,GAYU KERHANA | TAMAN KEMUNING
a3c4a007-d2a0-4931-a622-e28bfafcf484,The Soap Cellar Sdn Bhd
fb3aa84b-fe70-4153-b875-4e2b85b442bc,Cc Makeup Art|Jalan M9
a80d9c32-79ea-4627-9caf-5fbe666d6bce,GP TruLife - Yi Xiu Factory Building
1a8148b3-de68-4301-8f35-7b596d087697,Salun Persolekan Monica|Taman Pelangi
a55f65e3-fe91-4844-a229-0e8cc1d77500,HUSH COSMETICS PTE. LTD. (ONLINE)
ef967e2a-e2ed-4006-a64a-d02f4ba01708,Yen Beauty Studio | Taman Jati Batu
944bd6db-1c06-4ed5-b2a5-279b30bd61a5,Joe Sayap Barbershop | Jalan Ampang
e43f28e0-cb04-424a-b75c-50330d57fc50,Formula One Tailor | Kuching
1e1e8df6-a67e-42a1-8c5c-4c34dc2f9225,Chic & Dapper
5e0b560f-dbbb-457e-bf72-e83ac6da95bd,ESTETICA BEAUTY (PARKWAY PARADE)
67cf6760-315d-40e1-884c-efe4a3db44cb,J-Feelz | Taman Gemilang
cf9837d6-73da-4718-bb03-2fdbbc8735fd,ANUTRI V CONCEPT | SELAYANG CAPITOL COMPLEX
d008412f-5163-47d6-8e34-c177a6992070,Tukang Jahit Mico | KL
1b2d3c72-274d-4409-83d1-af80aff1b96e,KEDAI JAHIT SIEW HWA | JALAN DATARAN LARKIN 
f0d25a45-6af8-4be9-93ee-d6b623f05930,ESTETICA BEAUTY (COMPASS ONE)
89697a65-201b-4116-b5fb-2b066ae2449c,MyThai | OUG 
9d9225d4-8cba-44cf-aa53-4792f726c718,MASTERPIECE SALOON | LEBUH LAPANGAN PERDANA 2
aaea4a7b-d621-4335-be85-7a1269db1329,SOHYANG LAPORIS
ad4925d6-69c2-4345-903e-3b6fc87b5d6c,101 (JCUBE)
882f20e4-448f-476b-886b-46bde7fed639,SPLICE BARBERSHOP (ONLINE)
aa73ed9d-02dd-4b57-b753-0a6b68ebf0ad,Hair Garden Salon | Taman Mount Austin
f7df15f6-bb32-4148-9aea-d839274d2923,THE COLOR SHOP | JUSCO SEREMBAN  2
1abb8ad2-2ac7-449e-bb97-ce645974403d,Sky Hong Salon | Taman Puteri Wangsa
d8072123-b021-408a-ac65-e16b149f8976,Kedai Gunting Rambut Razik | Jalan Tiram
e2699cd2-451e-45c3-9b07-640cf7f656c5,Hairtitude Salon | Jalan jelutong 
86d6f4d1-5f90-46f5-a146-267f190f3114,Luxuriance Sdn. Bhd.
fec04329-af19-4a62-8b45-699dfe7b6d31,QX BEAUTY WELLNESS PTE. LTD. (PACIFIC PLAZA)
f0ed120c-9c23-4221-87dd-9cf961b7b3de,SIGNATURE NAILZ EXPRESS
bc6e7534-35a6-40a2-a1a4-1f43f5bbb544,GP Origo Creation - Enterprise One
d4b31482-038f-47fe-a536-de06e6b786ef,Beauchic Sdn Bhd
bf9056ad-a3f4-4b0d-a14d-b045d1fce3ab,Fashion Top Hair Salon | Jalan Mawar
262d2ff9-7e22-4982-a58b-5ed989ce39dd,APT | Setapak Central
4bc765ac-eb93-48de-9b81-6c7d73fd6736,Happy Hair Beauty Saloon | Taman Puteri Wangsa
cd0b36ee-8e87-4ec2-9af7-c758d18c6e5e,ESTETICA BEAUTY (WESTGATE)
873cbad7-d6eb-414a-afbb-aef4401b1ee0,Normcore Barber & Tattoo | Taman Taynton View
9f313967-e1d3-4efd-bb47-8ad0eb20bfcd,Cutting Edge | AEON Bukit Tinggi
d8a2abd2-70f1-4c6a-8b23-10332ca40d23,Li's Hair & Beauty Studio | Kota Padawan
07b5d634-ca53-4fa1-956d-1c9eef84cb83,Asweena Hair & Beauty Salon | Taman Kinrara
4ede344d-f261-4129-a70a-3ead57d6facf,Bai Ai Tang | Taman Molek
dcb5551c-1788-4e61-aa66-649efc1f5f59,Micoo Hair Salon|Jalan EJ 3/1
35a33cf8-c729-4532-93da-f26de1a0aa01,MT.SAPOLA (ONLINE)
55edefe4-0af7-4b26-9ef1-611f74336034,SCREEN BEAUTY SKIN | SELAYANG JAYA
9fa0e69f-bc37-44e9-a92d-bd350f8d481b,DOMINGER TAILOR | SELAYANG BARU
e10acb39-00e8-4918-99e8-6b4c259c762e,Miho Hair Salon | Jalan Perkasa 
9670bd55-0881-4039-bf56-276510a653cd,Nail De' Art | Puchong
6cb92416-d90c-4bfe-92d6-e00a2eea6052,GP My Beauty Moments - Toa Payoh North
a398bbcf-70b1-4647-956a-27ac11b84e16,Formula One Tailor| Sarawak Plaza Shopping Complex
4dc3afd0-7b9b-4e2b-bf1c-b241253f379c,Cosway | Taman Connaught Cheras
9a8665cf-adac-480c-9198-a0de72a14b9b,Jess's Nail Spa |  Jalan Tanjung Bungah
c1dcdc32-1909-4083-8125-7be27f366146,TK TRICHOKARE (NGEE ANN CITY)
69468b30-9177-4f16-a9e1-38dc8ade89ea,ACM Global Bio Tech Sdn Bhd | Taman Maluri
5397e817-3d97-4173-8729-0eb19da11829,GP Dr Haach - Novena Specialist Center
4b15fe3f-44e9-4c57-9ebf-05a94388dd0c,CALEO SALON
e1cee536-cfe7-44a2-b52f-ec3691da1b02,Mr & Mrs Hair Gallery
5672a30b-3686-4f78-ad10-1b54daa00678,GP Haach - Orchard Central
c9ed4077-66f9-4eae-875b-781ef7a0f28e,SKINX PTE. LTD. (ONLINE)
1fc426ef-13d3-4fb6-a1aa-70a38c7b1186,JENKS BEAUTY WELLNESS | JALAN AIR PUTIH
bcf467b8-9790-499f-b158-5a591cbe78cf,THE HAIR SHOP ACADEMY | TRANCHELL STREET MENGLEMBU
05d7cda7-ab78-4270-b844-0263e54174e3,Cns Christina | Taman Equine
a7974d0b-6dcf-45ef-8b47-420e7acd3759,El Nail Spa | Jalan Seri Orkid
1900ec3b-bbee-4ee9-8887-4a775bee8926,GP Haach - Novena Specialist Center
176fd64a-199e-4174-960f-d1b51af114b9,Ava Skin Laser | Sg Petani
d0c67d13-b365-452b-81f3-772632d2e25b,101 (NEX)
722cd35a-12d6-44c0-aaed-9b8f680ead08,J-feelz | Jalan Kenari 
899d9e62-6890-4a71-8ddd-01f7831f7779,GLOWFULLY (ONLINE)